AD,EUR
AE,ASI
AF,ASI
AG,NAM
AI,NAM
AL,EUR
AM,ASI
AN,NAM
AO,AFR
AP,ASI
AQ,ANT
AR,SAM
AS,OCE
AT,EUR
AU,OCE
AW,NAM
AX,EUR
AZ,ASI
BA,EUR
BB,NAM
BD,ASI
BE,EUR
BF,AFR
BG,EUR
BH,ASI
BI,AFR
BJ,AFR
BL,NAM
BM,NAM
BN,ASI
BO,SAM
BR,SAM
BS,NAM
BT,ASI
BV,ANT
BW,AFR
BY,EUR
BZ,NAM
CA,NAM
CC,ASI
CD,AFR
CF,AFR
CG,AFR
CH,EUR
CI,AFR
CK,OCE
CL,SAM
CM,AFR
CN,ASI
CO,SAM
CR,NAM
CU,NAM
CV,AFR
CX,ASI
CY,ASI
CZ,EUR
DE,EUR
DJ,AFR
DK,EUR
DM,NAM
DO,NAM
DZ,AFR
EC,SAM
EE,EUR
EG,AFR
EH,AFR
ER,AFR
ES,EUR
ET,AFR
EU,EUR
FI,EUR
FJ,OCE
FK,SAM
FM,OCE
FO,EUR
FR,EUR
FX,EUR
GA,AFR
GB,EUR
GD,NAM
GE,ASI
GF,SAM
GG,EUR
GH,AFR
GI,EUR
GL,NAM
GM,AFR
GN,AFR
GP,NAM
GQ,AFR
GR,EUR
GS,ANT
GT,NAM
GU,OCE
GW,AFR
GY,SAM
HK,ASI
HM,ANT
HN,NAM
HR,EUR
HT,NAM
HU,EUR
ID,ASI
IE,EUR
IL,ASI
IM,EUR
IN,ASI
IO,ASI
IQ,ASI
IR,ASI
IS,EUR
IT,EUR
JE,EUR
JM,NAM
JO,ASI
JP,ASI
KE,AFR
KG,ASI
KH,ASI
KI,OCE
KM,AFR
KN,NAM
KP,ASI
KR,ASI
KW,ASI
KY,NAM
KZ,ASI
LA,ASI
LB,ASI
LC,NAM
LI,EUR
LK,ASI
LR,AFR
LS,AFR
LT,EUR
LU,EUR
LV,EUR
LY,AFR
MA,AFR
MC,EUR
MD,EUR
ME,EUR
MF,NAM
MG,AFR
MH,OCE
MK,EUR
ML,AFR
MM,ASI
MN,ASI
MO,ASI
MP,OCE
MQ,NAM
MR,AFR
MS,NAM
MT,EUR
MU,AFR
MV,ASI
MW,AFR
MX,NAM
MY,ASI
MZ,AFR
NA,AFR
NC,OCE
NE,AFR
NF,OCE
NG,AFR
NI,NAM
NL,EUR
NO,EUR
NP,ASI
NR,OCE
NU,OCE
NZ,OCE
OM,ASI
PA,NAM
PE,SAM
PF,OCE
PG,OCE
PH,ASI
PK,ASI
PL,EUR
PM,NAM
PN,OCE
PR,NAM
PS,ASI
PT,EUR
PW,OCE
PY,SAM
QA,ASI
RE,AFR
RO,EUR
RS,EUR
RU,EUR
RW,AFR
SA,ASI
SB,OCE
SC,AFR
SD,AFR
SE,EUR
SG,ASI
SH,AFR
SI,EUR
SJ,EUR
SK,EUR
SL,AFR
SM,EUR
SN,AFR
SO,AFR
SR,SAM
ST,AFR
SV,NAM
SY,ASI
SZ,AFR
TC,NAM
TD,AFR
TF,ANT
TG,AFR
TH,ASI
TJ,ASI
TK,OCE
TL,ASI
TM,ASI
TN,AFR
TO,OCE
TR,EUR
TT,NAM
TV,OCE
TW,ASI
TZ,AFR
UA,EUR
UG,AFR
UM,OCE
US,NAM
UY,SAM
UZ,ASI
VA,EUR
VC,NAM
VE,SAM
VG,NAM
VI,NAM
VN,ASI
VU,OCE
WF,OCE
WS,OCE
YE,ASI
YT,AFR
ZA,AFR
ZM,AFR
ZW,AFR
